21c2e59531c8710156d34a3c30ac81d5,Z,0.000031
e182ebbc166d73366e7986813a7fc5f1,AD,0.000806
aeb9573c09919d210512b643907e56b8,God,0.111776
81dc9bdb52d04dc20036dbd8313ed055,1234,1.092963
37e464916dcb6dfc3994ca4549e97272,AbCdE,71.291535
a5312fd5717d3e2fd419132e3c3ac51b,Trojan,7048.445717
